[
  {
    "$title": "AMD Ryzen 5 5600X 3.7 GHz 6-Core Processor",
    "$price": 149.34,
    "Manufacturer": "AMD",
    "Part #": "100-100000065BOX",
    "Core Count": "6",
    "Performance Core Clock": "3.7 GHz",
    "Performance Boost Clock": "4.6 GHz",
    "TDP": "65 W",
    "Series": "AMD Ryzen 5",
    "Microarchitecture": "Zen 3",
    "Core Family": "Vermeer",
    "Socket": "AM4",
    "Integrated Graphics": "None",
    "Maximum Supported Memory": "128 GB",
    "ECC Support": "No",
    "Includes Cooler": "Yes",
    "Packaging": "Boxed",
    "Performance L1 Cache": "6 x 32 kB Instruction\n6 x 32 kB Data",
    "Performance L2 Cache": "6 x 512 kB",
    "L3 Cache": "1 x 32 MB",
    "Lithography": "7 nm",
    "Includes CPU Cooler": "Yes",
    "Simultaneous Multithreading": "Yes",
    "image": "processor/AMD Ryzen 5 5600X 3.7 GHz 6-Core Processor.jpg"
  },
  {
    "$title": "AMD Ryzen 7 7800X3D 4.2 GHz 8-Core Processor",
    "$price": 440,
    "Manufacturer": "AMD",
    "Part #": "100-100000910WOF",
    "Core Count": "8",
    "Performance Core Clock": "4.2 GHz",
    "Performance Boost Clock": "5 GHz",
    "TDP": "120 W",
    "Series": "AMD Ryzen 7",
    "Microarchitecture": "Zen 4",
    "Core Family": "Raphael",
    "Socket": "AM5",
    "Integrated Graphics": "Radeon",
    "ECC Support": "Yes",
    "Includes Cooler": "No",
    "Packaging": "Boxed",
    "Performance L1 Cache": "8 x 32 kB Instruction\n8 x 32 kB Data",
    "Performance L2 Cache": "8 x 1 MB",
    "L3 Cache": "1 x 96 MB",
    "Lithography": "5 nm",
    "Includes CPU Cooler": "No",
    "Simultaneous Multithreading": "Yes",
    "image": "processor/AMD Ryzen 7 7800X3D 4.2 GHz 8-Core Processor.jpg"
  },
  {
    "$title": "AMD Ryzen 7 5800X 3.8 GHz 8-Core Processor",
    "$price": 228.39,
    "Manufacturer": "AMD",
    "Part #": "100-100000063WOF",
    "Core Count": "8",
    "Performance Core Clock": "3.8 GHz",
    "Performance Boost Clock": "4.7 GHz",
    "TDP": "105 W",
    "Series": "AMD Ryzen 7",
    "Microarchitecture": "Zen 3",
    "Core Family": "Vermeer",
    "Socket": "AM4",
    "Integrated Graphics": "None",
    "Maximum Supported Memory": "128 GB",
    "ECC Support": "No",
    "Includes Cooler": "No",
    "Packaging": "Boxed",
    "Performance L1 Cache": "8 x 32 kB Instruction\n8 x 32 kB Data",
    "Performance L2 Cache": "8 x 512 kB",
    "L3 Cache": "1 x 32 MB",
    "Lithography": "7 nm",
    "Includes CPU Cooler": "No",
    "Simultaneous Multithreading": "Yes",
    "image": "processor/AMD Ryzen 7 5800X 3.8 GHz 8-Core Processor.jpg"
  },
  {
    "$title": "Intel Core i9-13900K 3 GHz 24-Core Processor",
    "$price": 564.99,
    "Manufacturer": "Intel",
    "Part #": "BX8071513900K\ni9-13900K",
    "Core Count": "24",
    "Performance Core Clock": "3 GHz",
    "Performance Boost Clock": "5.8 GHz",
    "TDP": "125 W",
    "Series": "Intel Core i9",
    "Microarchitecture": "Raptor Lake",
    "Core Family": "Raptor Lake",
    "Socket": "LGA1700",
    "Integrated Graphics": "Intel UHD Graphics 770",
    "Maximum Supported Memory": "128 GB",
    "ECC Support": "Yes",
    "Includes Cooler": "No",
    "Packaging": "Boxed",
    "Performance L1 Cache": "8 x 32 kB Instruction\n8 x 48 kB Data",
    "Efficiency L1 Cache": "16 x 32 kB Instruction\n16 x 64 kB Data",
    "Performance L2 Cache": "8 x 2 MB",
    "Efficiency L2 Cache": "4 x 4 MB",
    "L3 Cache": "1 x 36 MB",
    "Lithography": "10 nm",
    "Includes CPU Cooler": "No",
    "Simultaneous Multithreading": "Yes: Hyper-Threading",
    "image": "processor/Intel Core i9-13900K 3 GHz 24-Core Processor.jpg"
  },
  {
    "$title": "Intel Core i7-13700K 3.4 GHz 16-Core Processor",
    "$price": 407.99,
    "Manufacturer": "Intel",
    "Part #": "BX8071513700K\ni7-13700K",
    "Core Count": "16",
    "Performance Core Clock": "3.4 GHz",
    "Performance Boost Clock": "5.4 GHz",
    "TDP": "125 W",
    "Series": "Intel Core i7",
    "Microarchitecture": "Raptor Lake",
    "Core Family": "Raptor Lake",
    "Socket": "LGA1700",
    "Integrated Graphics": "Intel UHD Graphics 770",
    "Maximum Supported Memory": "128 GB",
    "ECC Support": "Yes",
    "Includes Cooler": "No",
    "Packaging": "Boxed",
    "Performance L1 Cache": "8 x 32 kB Instruction\n8 x 48 kB Data",
    "Efficiency L1 Cache": "8 x 32 kB Instruction\n8 x 64 kB Data",
    "Performance L2 Cache": "8 x 2 MB",
    "Efficiency L2 Cache": "2 x 4 MB",
    "L3 Cache": "1 x 30 MB",
    "Lithography": "10 nm",
    "Includes CPU Cooler": "No",
    "Simultaneous Multithreading": "Yes: Hyper-Threading",
    "image": "processor/Intel Core i7-13700K 3.4 GHz 16-Core Processor.jpg"
  },
  {
    "$title": "Intel Core i5-13600K 3.5 GHz 14-Core Processor",
    "$price": 309.99,
    "Manufacturer": "Intel",
    "Part #": "BX8071513600K\ni5-13600K",
    "Core Count": "14",
    "Performance Core Clock": "3.5 GHz",
    "Performance Boost Clock": "5.1 GHz",
    "TDP": "125 W",
    "Series": "Intel Core i5",
    "Microarchitecture": "Raptor Lake",
    "Core Family": "Raptor Lake",
    "Socket": "LGA1700",
    "Integrated Graphics": "Intel UHD Graphics 770",
    "Maximum Supported Memory": "128 GB",
    "ECC Support": "Yes",
    "Includes Cooler": "No",
    "Packaging": "Boxed",
    "Performance L1 Cache": "6 x 32 kB Instruction\n6 x 48 kB Data",
    "Efficiency L1 Cache": "8 x 32 kB Instruction\n8 x 64 kB Data",
    "Performance L2 Cache": "6 x 2 MB",
    "Efficiency L2 Cache": "2 x 4 MB",
    "L3 Cache": "1 x 24 MB",
    "Lithography": "10 nm",
    "Includes CPU Cooler": "No",
    "Simultaneous Multithreading": "Yes: Hyper-Threading",
    "image": "processor/Intel Core i5-13600K 3.5 GHz 14-Core Processor.jpg"
  },
  {
    "$title": "AMD Ryzen 5 5600 3.5 GHz 6-Core Processor",
    "$price": 124.99,
    "Manufacturer": "AMD",
    "Part #": "100-100000927BOX",
    "Core Count": "6",
    "Performance Core Clock": "3.5 GHz",
    "Performance Boost Clock": "4.4 GHz",
    "TDP": "65 W",
    "Series": "AMD Ryzen 5",
    "Microarchitecture": "Zen 3",
    "Core Family": "Vermeer",
    "Socket": "AM4",
    "Integrated Graphics": "None",
    "Maximum Supported Memory": "128 GB",
    "ECC Support": "No",
    "Includes Cooler": "Yes",
    "Packaging": "Boxed",
    "Performance L1 Cache": "6 x 32 kB Instruction\n6 x 32 kB Data",
    "Performance L2 Cache": "6 x 512 kB",
    "L3 Cache": "1 x 32 MB",
    "Lithography": "7 nm",
    "Includes CPU Cooler": "Yes",
    "Simultaneous Multithreading": "Yes",
    "image": "processor/AMD Ryzen 5 5600 3.5 GHz 6-Core Processor.jpg"
  },
  {
    "$title": "AMD Ryzen 7 7700X 4.5 GHz 8-Core Processor",
    "$price": 297,
    "Manufacturer": "AMD",
    "Part #": "100-100000591WOF",
    "Core Count": "8",
    "Performance Core Clock": "4.5 GHz",
    "Performance Boost Clock": "5.4 GHz",
    "TDP": "105 W",
    "Series": "AMD Ryzen 7",
    "Microarchitecture": "Zen 4",
    "Core Family": "Raphael",
    "Socket": "AM5",
    "Integrated Graphics": "Radeon",
    "ECC Support": "Yes",
    "Includes Cooler": "No",
    "Packaging": "Boxed",
    "Performance L1 Cache": "8 x 32 kB Instruction\n8 x 32 kB Data",
    "Performance L2 Cache": "8 x 1 MB",
    "L3 Cache": "1 x 32 MB",
    "Lithography": "5 nm",
    "Includes CPU Cooler": "No",
    "Simultaneous Multithreading": "Yes",
    "image": "processor/AMD Ryzen 7 7700X 4.5 GHz 8-Core Processor.jpg"
  },
  {
    "$title": "AMD Ryzen 5 5600G 3.9 GHz 6-Core Processor",
    "$price": 121.8,
    "Manufacturer": "AMD",
    "Part #": "100-100000252BOX",
    "Core Count": "6",
    "Performance Core Clock": "3.9 GHz",
    "Performance Boost Clock": "4.4 GHz",
    "TDP": "65 W",
    "Series": "AMD Ryzen 5",
    "Microarchitecture": "Zen 3",
    "Core Family": "Cezanne",
    "Socket": "AM4",
    "Integrated Graphics": "Radeon Vega 7",
    "Maximum Supported Memory": "128 GB",
    "ECC Support": "No",
    "Includes Cooler": "Yes",
    "Packaging": "Boxed",
    "Performance L1 Cache": "6 x 32 kB Instruction\n6 x 32 kB Data",
    "Performance L2 Cache": "6 x 512 kB",
    "L3 Cache": "1 x 16 MB",
    "Lithography": "7 nm",
    "Includes CPU Cooler": "Yes",
    "Simultaneous Multithreading": "Yes",
    "image": "processor/AMD Ryzen 5 5600G 3.9 GHz 6-Core Processor.jpg"
  },
  {
    "$title": "AMD Ryzen 5 7600X 4.7 GHz 6-Core Processor",
    "$price": 209.99,
    "Manufacturer": "AMD",
    "Part #": "100-100000593WOF",
    "Core Count": "6",
    "Performance Core Clock": "4.7 GHz",
    "Performance Boost Clock": "5.3 GHz",
    "TDP": "105 W",
    "Series": "AMD Ryzen 5",
    "Microarchitecture": "Zen 4",
    "Core Family": "Raphael",
    "Socket": "AM5",
    "Integrated Graphics": "Radeon",
    "ECC Support": "Yes",
    "Includes Cooler": "No",
    "Packaging": "Boxed",
    "Performance L1 Cache": "6 x 32 kB Instruction\n6 x 32 kB Data",
    "Performance L2 Cache": "6 x 1 MB",
    "L3 Cache": "1 x 32 MB",
    "Lithography": "5 nm",
    "Includes CPU Cooler": "No",
    "Simultaneous Multithreading": "Yes",
    "image": "processor/AMD Ryzen 5 7600X 4.7 GHz 6-Core Processor.jpg"
  },
  {
    "$title": "AMD Ryzen 5 3600 3.6 GHz 6-Core Processor",
    "$price": 89,
    "Manufacturer": "AMD",
    "Part #": "Ryzen 5 3600\n100-100000031BOX",
    "Core Count": "6",
    "Performance Core Clock": "3.6 GHz",
    "Performance Boost Clock": "4.2 GHz",
    "TDP": "65 W",
    "Series": "AMD Ryzen 5",
    "Microarchitecture": "Zen 2",
    "Core Family": "Matisse",
    "Socket": "AM4",
    "Integrated Graphics": "None",
    "Maximum Supported Memory": "128 GB",
    "ECC Support": "No",
    "Includes Cooler": "Yes",
    "Packaging": "Boxed",
    "Performance L1 Cache": "6 x 32 kB Instruction\n6 x 32 kB Data",
    "Performance L2 Cache": "6 x 512 kB",
    "L3 Cache": "2 x 16 MB",
    "Lithography": "7 nm",
    "Includes CPU Cooler": "Yes",
    "Simultaneous Multithreading": "Yes",
    "image": "processor/AMD Ryzen 5 3600 3.6 GHz 6-Core Processor.jpg"
  },
  {
    "$title": "Intel Core i5-12400 2.5 GHz 6-Core Processor",
    "$price": 172,
    "Manufacturer": "Intel",
    "Part #": "BX8071512400",
    "Core Count": "6",
    "Performance Core Clock": "2.5 GHz",
    "Performance Boost Clock": "4.4 GHz",
    "TDP": "65 W",
    "Series": "Intel Core i5",
    "Microarchitecture": "Alder Lake",
    "Core Family": "Alder Lake",
    "Socket": "LGA1700",
    "Integrated Graphics": "Intel UHD Graphics 730",
    "Maximum Supported Memory": "128 GB",
    "ECC Support": "No",
    "Includes Cooler": "Yes",
    "Packaging": "Boxed",
    "Performance L1 Cache": "6 x 32 kB Instruction\n6 x 48 kB Data",
    "Performance L2 Cache": "6 x 1.25 MB",
    "L3 Cache": "1 x 18 MB",
    "Lithography": "10 nm",
    "Includes CPU Cooler": "Yes",
    "Simultaneous Multithreading": "Yes: Hyper-Threading",
    "image": "processor/Intel Core i5-12400 2.5 GHz 6-Core Processor.jpg"
  },
  {
    "$title": "AMD Ryzen 9 7950X3D 4.2 GHz 16-Core Processor",
    "$price": 669,
    "Manufacturer": "AMD",
    "Part #": "100-100000908WOF",
    "Core Count": "16",
    "Performance Core Clock": "4.2 GHz",
    "Performance Boost Clock": "5.7 GHz",
    "TDP": "120 W",
    "Series": "AMD Ryzen 9",
    "Microarchitecture": "Zen 4",
    "Core Family": "Raphael",
    "Socket": "AM5",
    "Integrated Graphics": "Radeon",
    "ECC Support": "Yes",
    "Includes Cooler": "No",
    "Packaging": "Boxed",
    "Performance L1 Cache": "16 x 32 kB Instruction\n16 x 32 kB Data",
    "Performance L2 Cache": "16 x 1 MB",
    "L3 Cache": "1 x 128 MB",
    "Lithography": "5 nm",
    "Includes CPU Cooler": "No",
    "Simultaneous Multithreading": "Yes",
    "image": "processor/AMD Ryzen 9 7950X3D 4.2 GHz 16-Core Processor.jpg"
  },
  {
    "$title": "Intel Xeon E5-2687W V4 3 GHz 12-Core Processor",
    "$price": 2660,
    "Manufacturer": "Intel",
    "Part #": "BX80660E52687V4",
    "Core Count": "12",
    "Performance Core Clock": "3 GHz",
    "Performance Boost Clock": "3.5 GHz",
    "TDP": "160 W",
    "Series": "Intel Xeon E5",
    "Microarchitecture": "Broadwell",
    "Core Family": "Broadwell-EP",
    "Socket": "LGA2011-3",
    "Integrated Graphics": "None",
    "Maximum Supported Memory": "1536 GB",
    "ECC Support": "Yes",
    "Includes Cooler": "No",
    "Packaging": "Boxed",
    "Performance L1 Cache": "12 x 32 kB Instruction\n12 x 32 kB Data",
    "Performance L2 Cache": "12 x 256 kB",
    "L3 Cache": "1 x 30 MB",
    "Lithography": "14 nm",
    "Includes CPU Cooler": "No",
    "Simultaneous Multithreading": "Yes: Hyper-Threading",
    "image": "processor/Intel Xeon E5-2687W V4 3 GHz 12-Core Processor.jpg"
  },
  {
    "$title": "AMD Ryzen 7 3700X 3.6 GHz 8-Core Processor",
    "$price": 272.99,
    "Manufacturer": "AMD",
    "Part #": "Ryzen 7 3700X\n100-100000071BOX",
    "Core Count": "8",
    "Performance Core Clock": "3.6 GHz",
    "Performance Boost Clock": "4.4 GHz",
    "TDP": "65 W",
    "Series": "AMD Ryzen 7",
    "Microarchitecture": "Zen 2",
    "Core Family": "Matisse",
    "Socket": "AM4",
    "Integrated Graphics": "None",
    "Maximum Supported Memory": "128 GB",
    "ECC Support": "No",
    "Includes Cooler": "Yes",
    "Packaging": "Boxed",
    "Performance L1 Cache": "8 x 32 kB Instruction\n8 x 64 kB Data",
    "Performance L2 Cache": "8 x 512 kB",
    "L3 Cache": "2 x 16 MB",
    "Lithography": "7 nm",
    "Includes CPU Cooler": "Yes",
    "Simultaneous Multithreading": "Yes",
    "image": "processor/AMD Ryzen 7 3700X 3.6 GHz 8-Core Processor.jpg"
  }
]
